^C:\DEV\CPP\GIP PRAKTIKUM\OFFLINE\OFFLINE11_1\MAIN.CPP
C:\DEV\CPP\GIP PRAKTIKUM\OFFLINE\OFFLINE11_1\X64\DEBUG\VC140.PDB
C:\DEV\CPP\GIP PRAKTIKUM\OFFLINE\OFFLINE11_1\X64\DEBUG\VC140.IDB
C:\DEV\CPP\GIP PRAKTIKUM\OFFLINE\OFFLINE11_1\X64\DEBUG\MAIN.OBJ
