^C:\DEV\CPP\GIP PRAKTIKUM\OFFLINE\OFFLINE7_3\MAIN.CPP
C:\DEV\CPP\GIP PRAKTIKUM\OFFLINE\OFFLINE7_3\X64\DEBUG\VC140.PDB
C:\DEV\CPP\GIP PRAKTIKUM\OFFLINE\OFFLINE7_3\X64\DEBUG\VC140.IDB
C:\DEV\CPP\GIP PRAKTIKUM\OFFLINE\OFFLINE7_3\X64\DEBUG\MAIN.OBJ
