^C:\DEV\CPP\GIP PRAKTIKUM\OFFLINE\OFFLINE3_2\MAIN.CPP
C:\DEV\CPP\GIP PRAKTIKUM\OFFLINE\OFFLINE3_2\X64\DEBUG\VC140.PDB
C:\DEV\CPP\GIP PRAKTIKUM\OFFLINE\OFFLINE3_2\X64\DEBUG\VC140.IDB
C:\DEV\CPP\GIP PRAKTIKUM\OFFLINE\OFFLINE3_2\X64\DEBUG\MAIN.OBJ
