^C:\DEV\CPP\GIP PRAKTIKUM\OFFLINE\OFFLINE7_4\X64\DEBUG\MAIN.OBJ
C:\DEV\CPP\GIP PRAKTIKUM\OFFLINE\X64\DEBUG\OFFLINE7_4.ILK
C:\DEV\CPP\GIP PRAKTIKUM\OFFLINE\X64\DEBUG\OFFLINE7_4.EXE
C:\DEV\CPP\GIP PRAKTIKUM\OFFLINE\X64\DEBUG\OFFLINE7_4.PDB
