^C:\DEV\CPP\GIP PRAKTIKUM\OFFLINE\OFFLINE1\X64\DEBUG\MAIN.OBJ
C:\DEV\CPP\GIP PRAKTIKUM\OFFLINE\X64\DEBUG\OFFLINE1.ILK
C:\DEV\CPP\GIP PRAKTIKUM\OFFLINE\X64\DEBUG\OFFLINE1.EXE
C:\DEV\CPP\GIP PRAKTIKUM\OFFLINE\X64\DEBUG\OFFLINE1.PDB
