^C:\DEV\CPP\GIP PRAKTIKUM\OFFLINE\OFFLINE12_1\X64\DEBUG\MAIN.OBJ
C:\DEV\CPP\GIP PRAKTIKUM\OFFLINE\X64\DEBUG\OFFLINE12_1.ILK
C:\DEV\CPP\GIP PRAKTIKUM\OFFLINE\X64\DEBUG\OFFLINE12_1.EXE
C:\DEV\CPP\GIP PRAKTIKUM\OFFLINE\X64\DEBUG\OFFLINE12_1.PDB
